<svg width="400" height="420" viewBox="0 0 400 420" fill="none" xmlns="http://www.w3.org/2000/svg">
<path d="M123.128 4.08046C89.1837 9.99545 55.6731 23.3685 31.5235 47.3635C7.37381 71.3585 -6.00909 107.072 2.63771 139.629C13.2597 179.618 52.5465 205.893 71.3891 242.89C85.0901 269.796 87.2386 300.91 98.3744 328.918C113.085 365.919 144.037 396.471 181.8 411.269C202.487 419.374 225.694 422.841 247.25 417.299C269.132 411.674 287.561 397.359 303.598 381.792C366.952 320.292 402.662 232.614 399.845 145.487C398.684 109.614 390.201 71.8842 364.72 45.9863C335.399 16.1927 292.076 9.41698 251.905 5.42816C208.392 1.11211 167.08 -3.5777 123.128 4.08046Z" fill="url(#paint0_linear)"/>
<defs>
<linearGradient id="paint0_linear" x1="45.7763" y1="25.0078" x2="466.873" y2="434.717" gradientUnits="userSpaceOnUse">
<stop stop-color="#F8D90F"/>
<stop offset="0.63" stop-color="#FE7A15"/>
</linearGradient>
</defs>
</svg>
